[1416546247] [error] [client 0.0.0.0] set_ports_option: cannot bind to 9101: No error
127.0.0.1 - - [15/Dec/2014:17:58:28 台北標準時間] "GET /cgi-bin/admin/remotefocus.cgi?function=getstatus HTTP/1.0" 404 0 - "VVTK (ver=40)"
127.0.0.1 - - [15/Dec/2014:17:58:30 台北標準時間] "GET /cgi-bin/admin/remotefocus.cgi?function=getstatus HTTP/1.0" 404 0 - "VVTK (ver=40)"
127.0.0.1 - - [15/Dec/2014:18:00:11 台北標準時間] "GET /cgi-bin/admin/remotefocus.cgi?function=getstatus HTTP/1.0" 404 0 - "VVTK (ver=40)"
127.0.0.1 - - [15/Dec/2014:18:02:10 台北標準時間] "GET /favicon.ico HTTP/1.1" 404 0 - "Mozilla/5.0 (Windows NT 6.1; Win64; x64; rv:25.1) Gecko/20141110 Firefox/31.9 PaleMoon/25.1.0"
127.0.0.1 - - [15/Dec/2014:18:02:10 台北標準時間] "GET /favicon.ico HTTP/1.1" 404 0 - "Mozilla/5.0 (Windows NT 6.1; Win64; x64; rv:25.1) Gecko/20141110 Firefox/31.9 PaleMoon/25.1.0"
127.0.0.1 - - [15/Dec/2014:18:28:42 台北標準時間] "GET /cgi-bin/admin/remotefocus.cgi?function=getstatus HTTP/1.0" 404 0 - "VVTK (ver=40)"
127.0.0.1 - - [15/Dec/2014:18:38:03 台北標準時間] "GET /cgi-bin/admin/remotefocus.cgi?function=getstatus HTTP/1.0" 404 0 - "VVTK (ver=40)"
127.0.0.1 - - [16/Dec/2014:11:46:39 台北標準時間] "GET /live.sdp HTTP/1.1" 404 0 - "asynchttp"
127.0.0.1 - - [16/Dec/2014:11:46:46 台北標準時間] "GET /live.sdp HTTP/1.1" 404 0 - "asynchttp"
127.0.0.1 - - [16/Dec/2014:11:46:47 台北標準時間] "GET /cgi-bin/admin/remotefocus.cgi?function=getstatus HTTP/1.0" 404 0 - "VVTK (ver=40)"
127.0.0.1 - - [16/Dec/2014:11:46:52 台北標準時間] "GET /live.sdp HTTP/1.1" 404 0 - "asynchttp"
127.0.0.1 - - [16/Dec/2014:11:46:59 台北標準時間] "GET /live.sdp HTTP/1.1" 404 0 - "asynchttp"
127.0.0.1 - - [16/Dec/2014:11:47:05 台北標準時間] "GET /live.sdp HTTP/1.1" 404 0 - "asynchttp"
127.0.0.1 - - [16/Dec/2014:11:47:11 台北標準時間] "GET /live.sdp HTTP/1.1" 404 0 - "asynchttp"
127.0.0.1 - - [16/Dec/2014:11:47:18 台北標準時間] "GET /live.sdp HTTP/1.1" 404 0 - "asynchttp"
127.0.0.1 - - [16/Dec/2014:11:47:24 台北標準時間] "GET /live.sdp HTTP/1.1" 404 0 - "asynchttp"
127.0.0.1 - - [16/Dec/2014:11:47:30 台北標準時間] "GET /live.sdp HTTP/1.1" 404 0 - "asynchttp"
127.0.0.1 - - [16/Dec/2014:11:47:37 台北標準時間] "GET /live.sdp HTTP/1.1" 404 0 - "asynchttp"
127.0.0.1 - - [16/Dec/2014:11:47:43 台北標準時間] "GET /live.sdp HTTP/1.1" 404 0 - "asynchttp"
127.0.0.1 - - [16/Dec/2014:11:47:49 台北標準時間] "GET /live.sdp HTTP/1.1" 404 0 - "asynchttp"
127.0.0.1 - - [16/Dec/2014:11:47:56 台北標準時間] "GET /live.sdp HTTP/1.1" 404 0 - "asynchttp"
127.0.0.1 - - [16/Dec/2014:11:48:02 台北標準時間] "GET /live.sdp HTTP/1.1" 404 0 - "asynchttp"
127.0.0.1 - - [16/Dec/2014:11:48:09 台北標準時間] "GET /live.sdp HTTP/1.1" 404 0 - "asynchttp"
127.0.0.1 - - [16/Dec/2014:11:48:15 台北標準時間] "GET /live.sdp HTTP/1.1" 404 0 - "asynchttp"
127.0.0.1 - - [16/Dec/2014:11:48:21 台北標準時間] "GET /live.sdp HTTP/1.1" 404 0 - "asynchttp"
127.0.0.1 - - [16/Dec/2014:11:48:28 台北標準時間] "GET /live.sdp HTTP/1.1" 404 0 - "asynchttp"
127.0.0.1 - - [16/Dec/2014:11:48:34 台北標準時間] "GET /live.sdp HTTP/1.1" 404 0 - "asynchttp"
127.0.0.1 - - [16/Dec/2014:11:48:40 台北標準時間] "GET /live.sdp HTTP/1.1" 404 0 - "asynchttp"
127.0.0.1 - - [16/Dec/2014:11:48:47 台北標準時間] "GET /live.sdp HTTP/1.1" 404 0 - "asynchttp"
127.0.0.1 - - [16/Dec/2014:11:48:53 台北標準時間] "GET /live.sdp HTTP/1.1" 404 0 - "asynchttp"
127.0.0.1 - - [16/Dec/2014:11:49:00 台北標準時間] "GET /live.sdp HTTP/1.1" 404 0 - "asynchttp"
127.0.0.1 - - [16/Dec/2014:11:49:06 台北標準時間] "GET /live.sdp HTTP/1.1" 404 0 - "asynchttp"
127.0.0.1 - - [16/Dec/2014:11:49:12 台北標準時間] "GET /live.sdp HTTP/1.1" 404 0 - "asynchttp"
127.0.0.1 - - [16/Dec/2014:11:49:19 台北標準時間] "GET /live.sdp HTTP/1.1" 404 0 - "asynchttp"
127.0.0.1 - - [16/Dec/2014:11:49:25 台北標準時間] "GET /live.sdp HTTP/1.1" 404 0 - "asynchttp"
127.0.0.1 - - [16/Dec/2014:11:49:31 台北標準時間] "GET /live.sdp HTTP/1.1" 404 0 - "asynchttp"
127.0.0.1 - - [16/Dec/2014:11:49:38 台北標準時間] "GET /live.sdp HTTP/1.1" 404 0 - "asynchttp"
127.0.0.1 - - [16/Dec/2014:11:49:44 台北標準時間] "GET /live.sdp HTTP/1.1" 404 0 - "asynchttp"
127.0.0.1 - - [16/Dec/2014:11:49:50 台北標準時間] "GET /live.sdp HTTP/1.1" 404 0 - "asynchttp"
127.0.0.1 - - [16/Dec/2014:11:49:57 台北標準時間] "GET /live.sdp HTTP/1.1" 404 0 - "asynchttp"
127.0.0.1 - - [16/Dec/2014:11:50:03 台北標準時間] "GET /live.sdp HTTP/1.1" 404 0 - "asynchttp"
127.0.0.1 - - [16/Dec/2014:11:50:09 台北標準時間] "GET /live.sdp HTTP/1.1" 404 0 - "asynchttp"
127.0.0.1 - - [16/Dec/2014:11:50:16 台北標準時間] "GET /live.sdp HTTP/1.1" 404 0 - "asynchttp"
127.0.0.1 - - [16/Dec/2014:11:50:22 台北標準時間] "GET /live.sdp HTTP/1.1" 404 0 - "asynchttp"
127.0.0.1 - - [16/Dec/2014:11:50:29 台北標準時間] "GET /live.sdp HTTP/1.1" 404 0 - "asynchttp"
[1418957660] [error] [client 172.18.100.25] OPTIONS rtsp://172.18.100.25:9103/live.sdp: Error 400: Bad Request
[1418957660] [error] [client 172.18.100.25] OPTIONS rtsp://172.18.100.25:9103: Error 400: Bad Request
[1418957699] [error] [client 172.18.100.25] OPTIONS rtsp://172.18.100.25:9103/live.sdp: Error 400: Bad Request
[1418957699] [error] [client 172.18.100.25] OPTIONS rtsp://172.18.100.25:9103: Error 400: Bad Request
[1418960329] [error] [client 172.18.100.25] OPTIONS rtsp://172.18.100.25:9103/live.sdp: Error 400: Bad Request
[1418960329] [error] [client 172.18.100.25] OPTIONS rtsp://172.18.100.25:9103: Error 400: Bad Request
[1418960378] [error] [client 172.18.100.25] OPTIONS rtsp://172.18.100.25:9103/live.sdp: Error 400: Bad Request
[1418960378] [error] [client 172.18.100.25] OPTIONS rtsp://172.18.100.25:9103: Error 400: Bad Request
[1418960426] [error] [client 172.18.100.25] OPTIONS rtsp://172.18.100.25:9102/live.sdp: Error 400: Bad Request
[1418960426] [error] [client 172.18.100.25] OPTIONS rtsp://172.18.100.25:9102: Error 400: Bad Request
[1418960441] [error] [client 172.18.100.25] OPTIONS rtsp://172.18.100.25:7001/live.sdp: Error 400: Bad Request
[1418960441] [error] [client 172.18.100.25] OPTIONS rtsp://172.18.100.25:7001: Error 400: Bad Request
[1418968655] [error] [client 172.18.110.21] OPTIONS rtsp://172.18.100.25:9103/live.sdp: Error 400: Bad Request
[1418968661] [error] [client 172.18.110.21] OPTIONS rtsp://172.18.100.25:9103/live.sdp: Error 400: Bad Request
[1418968690] [error] [client 172.18.110.21] OPTIONS rtsp://172.18.100.25:9103/live.sdp: Error 400: Bad Request
172.18.110.21 - - [19/Dec/2014:16:25:59 台北標準時間] "GET /cgi-bin/admin/remotefocus.cgi?function=getstatus HTTP/1.0" 404 0 - "VVTK (ver=40)"
172.18.110.21 - - [19/Dec/2014:18:49:15 台北標準時間] "GET /cgi-bin/admin/remotefocus.cgi?function=getstatus HTTP/1.0" 404 0 - "VVTK (ver=40)"
172.18.100.25 - - [19/Dec/2014:18:59:17 台北標準時間] "GET /cgi-bin/admin/remotefocus.cgi?function=getstatus HTTP/1.0" 404 0 - "VVTK (ver=40)"
172.18.100.25 - - [19/Dec/2014:18:59:19 台北標準時間] "GET /cgi-bin/admin/remotefocus.cgi?function=getstatus HTTP/1.0" 404 0 - "VVTK (ver=40)"
172.18.100.25 - - [19/Dec/2014:18:59:20 台北標準時間] "GET /cgi-bin/admin/remotefocus.cgi?function=getstatus HTTP/1.0" 404 0 - "VVTK (ver=40)"
172.18.100.25 - - [19/Dec/2014:19:12:40 台北標準時間] "GET /live.sdp HTTP/1.1" 404 0 - "asynchttp"
172.18.100.25 - - [19/Dec/2014:19:12:46 台北標準時間] "GET /live.sdp HTTP/1.1" 404 0 - "asynchttp"
172.18.100.25 - - [19/Dec/2014:19:12:52 台北標準時間] "GET /live.sdp HTTP/1.1" 404 0 - "asynchttp"
172.18.100.25 - - [19/Dec/2014:19:12:59 台北標準時間] "GET /live.sdp HTTP/1.1" 404 0 - "asynchttp"
172.18.100.25 - - [19/Dec/2014:19:13:05 台北標準時間] "GET /live.sdp HTTP/1.1" 404 0 - "asynchttp"
172.18.100.25 - - [19/Dec/2014:19:13:11 台北標準時間] "GET /live.sdp HTTP/1.1" 404 0 - "asynchttp"
172.18.100.25 - - [19/Dec/2014:19:13:30 台北標準時間] "GET /live.sdp HTTP/1.1" 404 0 - "asynchttp"
172.18.110.21 - - [19/Dec/2014:19:13:39 台北標準時間] "GET /cgi-bin/admin/remotefocus.cgi?function=getstatus HTTP/1.0" 404 0 - "VVTK (ver=40)"
172.18.100.25 - - [19/Dec/2014:19:13:43 台北標準時間] "GET /cgi-bin/admin/remotefocus.cgi?function=getstatus HTTP/1.0" 404 0 - "VVTK (ver=40)"
172.18.100.25 - - [21/Dec/2014:10:11:32 台北標準時間] "GET /live.sdp HTTP/1.1" 404 0 - "asynchttp"
172.18.100.25 - - [21/Dec/2014:10:11:38 台北標準時間] "GET /live.sdp HTTP/1.1" 404 0 - "asynchttp"
172.18.110.21 - - [21/Dec/2014:10:18:18 台北標準時間] "GET /cgi-bin/admin/remotefocus.cgi?function=getstatus HTTP/1.0" 404 0 - "VVTK (ver=40)"
127.0.0.1 - - [22/Dec/2014:10:02:33 台北標準時間] "GET /favicon.ico HTTP/1.1" 404 0 - "Mozilla/5.0 (Windows NT 6.1; Win64; x64; rv:25.1) Gecko/20141110 Firefox/31.9 PaleMoon/25.1.0"
127.0.0.1 - - [22/Dec/2014:10:02:33 台北標準時間] "GET /favicon.ico HTTP/1.1" 404 0 - "Mozilla/5.0 (Windows NT 6.1; Win64; x64; rv:25.1) Gecko/20141110 Firefox/31.9 PaleMoon/25.1.0"
172.18.110.21 - - [22/Dec/2014:10:09:01 台北標準時間] "GET /cgi-bin/admin/remotefocus.cgi?function=getstatus HTTP/1.0" 404 0 - "VVTK (ver=40)"
172.18.110.21 - - [22/Dec/2014:10:15:26 台北標準時間] "GET /cgi-bin/admin/remotefocus.cgi?function=getstatus HTTP/1.0" 404 0 - "VVTK (ver=40)"
172.18.110.21 - - [22/Dec/2014:10:20:55 台北標準時間] "GET /cgi-bin/admin/remotefocus.cgi?function=getstatus HTTP/1.0" 404 0 - "VVTK (ver=40)"
172.18.110.21 - - [22/Dec/2014:10:56:02 台北標準時間] "GET /cgi-bin/admin/remotefocus.cgi?function=getstatus HTTP/1.0" 404 0 - "VVTK (ver=40)"
172.18.110.21 - - [22/Dec/2014:13:34:36 台北標準時間] "GET /cgi-bin/admin/remotefocus.cgi?function=getstatus HTTP/1.0" 404 0 - "VVTK (ver=40)"
172.18.110.21 - - [22/Dec/2014:13:36:59 台北標準時間] "GET /cgi-bin/admin/remotefocus.cgi?function=getstatus HTTP/1.0" 404 0 - "VVTK (ver=40)"
127.0.0.1 - - [22/Dec/2014:13:40:29 台北標準時間] "GET /cgi-bin/admin/remotefocus.cgi?function=getstatus HTTP/1.0" 404 0 - "VVTK (ver=40)"
127.0.0.1 - - [22/Dec/2014:13:40:30 台北標準時間] "GET /cgi-bin/admin/remotefocus.cgi?function=getstatus HTTP/1.0" 404 0 - "VVTK (ver=40)"
[1440406915] [error] [client 0.0.0.0] set_ports_option: cannot bind to 9101: No error
[1441102774] [error] [client 0.0.0.0] set_ports_option: cannot bind to 9001: No error
